Building Queries • finderquery
…
Different from fetch queries, facet queries always return a data frame.

It is possible to facet on up to two fields.

res <- fq_query_facet(con) %>%
  fq_filter_pubdate(from = as.Date(Sys.time()) - 2) %>%
  fq_facet_by(c("category", "language"), limit = 100) %>%
  fq_run()
res
#> # A tibble: 4,403 x 3
#>    category language     n
#>    <chr>    <chr>    <dbl>
#>  1 euro     en       55307
#>  2 euro     it       47138
#>  3 euro     es       39303
#>  4 euro     el       35447
#>  5 euro     ru       33457
#>  6 euro     de       32450
#>  7 euro     fr       21507
#>  8 euro     tr       14694
#>  9 euro     pt       13721
#> 10 euro     ar       13421
#> # … with 4,393 more rows
…
The fq_range_gap() function takes two parameters. The first is the number of time units the facet window gap should be and the second is the time unit, which is one of “DAY” (default), “MINUTE”, “HOUR”, “WEEK”, “MONTH”, or “YEAR”.

Here we run the same facet but hourly:

res <- fq_query_facet(con) %>%
  fq_filter_category("coronavirusinfection") %>%
  fq_facet_date_range(
    start = as.Date(Sys.time()) - 20,
    end = as.Date(Sys.time()),
    gap = fq_range_gap(1, "HOUR")
  ) %>%
  fq_run()
#> # A tibble: 480 x 2
#>    pubdate                 n
#>    <dttm>              <dbl>
#>  1 2020-08-23 00:00:00  1043
#>  2 2020-08-23 00:00:00  1131
#>  3 2020-08-23 00:00:00  1186
#>  4 2020-08-23 00:00:00  1088
#>  5 2020-08-23 00:00:00  2566
#>  6 2020-08-23 00:00:00  2276
#>  7 2020-08-23 00:00:00  2344
#>  8 2020-08-23 00:00:00  2075
#>  9 2020-08-23 00:00:00  2915
#> 10 2020-08-23 00:00:00  2491
#> # … with 470 more rows
…
